[хxh][уyu]([уy]|[уy][aа]|[йieеёюuяи])
([з|3][\,\.]14|II|[пpр])([иui]|[з3z])([з3z]|[дd6])([дd6]|[цсc])
[бb6][лl](я|[уy][aа])
([оo0]|[аa]){0,1}[ёеeuиi][б6b]([yу]|[аa]|[лl]|JI|[иui]){0,1}
[зz3][бb6][сcs]
[еeё][б6пp][тt]
(ch|[ч4])[мm][оo0]
(II|[пpр])[иui][дd6]([рpr]|[оo0]|[аa])[рpr]{0,1}
[пpр][еe][дd6][иeеi][кk]
[sсc][уyu](ch|4|ч){0,1}([кk]|[aа])([a@а]|[оo0])
[лl][oо]([хx]|[(ш|sh)[oо]])
[bб6][iиu][tт][(ch|ч|4)]
[fф][uaа][cс]{0,1}[kк]
[мm][уy][дd6]([аa]|[oо]|[иui])
[гg]([оo]|[aа])[вvb|mм][нnh]
[дqd][yuу][rpр][aа@]
[кk][oо][nнh][ч(ch)4]
[дqd][aа@][уyu][nhн]
[мm][pрr][a@а][з3z]
[dqдg][prр][oо0][ч4(ch)]
[ч4(ch)][л(jl)(ji)][е[эеeё]eё][нhn][oо0][csс][oо0][csс]
[и[ийiu]iu][dqдg][и[ийiu]iu][oо0][mtт]
[ш[шщ(sch)](sh)][mм][aа@][prр][aа@]
[ш[шщ(sch)](sh)][л(jl)(ji)][ю(iu)(yu)(iy)(|0)(|o)(|о)(io)(lo)(iо)(i0)(lо)(l0)][хxhkк(}{)]
[пnp][prр][oо0][csс][mtт][и[ийiu]iu][mtт][уyu][mtт]
[ш[шщ(sch)](sh)][л(jl)(ji)][е[эеeё]eё][нhn][dqдg][prр]
[пnp][е[эеeё]eё][з3z][dqдg][ю(iu)(yu)(iy)(|0)(|o)(|о)(io)(lo)(iо)(i0)(lо)(l0)][kк(i{)(|{)]
[пnp][oо0][dqдg][csс][oо0][csс]
[хxhkк(}{)][е[эеeё]eё][prр]
[гrg][е[эеeё]eё][ийiu]
[гrg][oо0][mм][и[ийiu]iu][kк(i{)(|{)]
[гrg][oо0][mм][oо0][csс][е[эеeё]eё][kк(i{)(|{)]
[гrg][aа@][нhn][dqдg][oо0][нhn]
[гrg][oо0][нhn][dqдg][oо0][нhn]
[aа@][вbv][aа@][mtт][aа@][ч4(ch)]
К[oо0][prр][prр][aа@]В[oо0][prр][л(jl)(ji)][dqдg]
К[oо0][prр][aа@][вbv][oо0][prр][л(jl)(ji)][dqдg]
[kк(i{)(|{)][oо0][prр][prр][aа@][вbv][oо0][prр][л(jl)(ji)][dqдg]
[kк(i{)(|{)][oо0][prр][aа@][вbv][oо0][prр][л(jl)(ji)][dqдg]
koraworld
korraworld
[kк(i{)(|{)][prр][е[эеeё]eё][mtт][и[ийiu]iu][нhn]
[kк(i{)(|{)][prр][и[ийiu]iu][mtт][и[ийiu]iu][нhn]
dick
[пnp][и[ийiu]iu][пnp][и[ийiu]iu][csс]
[з3z][aа@][л(jl)(ji)][уyu][пnp][aа@]
[пnp][е[эеeё]eё][нhn][и[ийiu]iu][csс]
[prр][уyu][kк(i{)(|{)][oо0][бb6][л(jl)(ji)][уyu][dqдg]
[csс]([csс]|[uцcс])[aа@][нhn][и[ийiu]iu][нhn][aа@]
[вbv][aа@][гrg][и[ийiu]iu][нhn][aа@]
[вbv][л(jl)(ji)][aа@][гrg][aа@][л(jl)(ji)][и[ийiu]iu][шщ(sch)][е[эеeё]eё]
[вbv][aа@][гrg][aа@][л(jl)(ji)][и[ийiu]iu][шщ(sch)][е[эеeё]eё]
[пnp][е[эеeё]eё][prр][dqдg][уyu][нhn]
[mм][aа@][л(jl)(ji)][aа@][f(qp)ф][ьb][я(ya)(9l)(9i)(9|)]
[mм][aа@][л(jl)(ji)][oо0][f(qp)ф][ьb][я(ya)(9l)(9i)(9|)]